{
  "development": {
    "username": "huubwxmi",
    "password": "tBV1A3DxGhju7O_Gzm3OQkiIKFFgW_1N",
    "database": "huubwxmi",
    "host": "satao.db.elephantsql.com",
    "dialect": "postgres",
    "ssl": true
  },
  "test": {
    "username": "root",
    "password": null,
    "database": "database_test",
    "host": "127.0.0.1",
    "dialect": "mysql"
  },
  "production": {
    "username": "root",
    "password": null,
    "database": "database_production",
    "host": "127.0.0.1",
    "dialect": "mysql"
  }
}
